Date,Open,High,Low,Close,Adj Close,Volume
2017-02-01,149.550003,151.699997,138.600006,140.699997,140.699997,265035
2017-03-01,140.199997,144.699997,136.199997,139.300003,139.300003,129436
2017-04-01,138.800003,143.699997,126.699997,131.050003,131.050003,279790
2017-05-01,134.649994,135.000000,127.150002,129.350006,129.350006,141744
2017-06-01,129.500000,130.000000,113.000000,124.050003,124.050003,321155
2017-07-01,125.849998,139.350006,125.000000,139.250000,139.250000,176890
2017-08-01,139.250000,143.750000,125.500000,128.149994,128.149994,310483
2017-09-01,128.899994,141.350006,125.949997,128.050003,128.050003,167789
2017-11-01,124.699997,130.300003,121.150002,126.300003,126.300003,366276
2017-12-01,126.949997,128.000000,116.900002,126.199997,126.199997,138718
2018-01-01,126.000000,131.350006,119.599998,121.849998,121.849998,533875
2018-02-01,121.699997,124.400002,116.500000,121.050003,121.050003,322578
2018-03-01,121.349998,122.000000,116.500000,118.150002,118.150002,162019
2018-05-01,122.849998,124.050003,112.449997,123.699997,123.699997,215754
2018-06-01,123.900002,124.949997,112.000000,111.500000,111.500000,426085
2018-08-01,109.699997,110.400002,95.449997,98.099998,98.099998,470939
2018-09-01,96.349998,103.449997,92.000000,102.449997,102.449997,195067
2018-10-01,102.150002,125.500000,101.099998,112.699997,112.699997,785177
2018-11-01,113.050003,121.300003,104.000000,103.250000,103.250000,379992
2018-12-01,103.500000,104.000000,95.750000,101.849998,101.849998,125435
2019-01-01,101.599998,107.150002,99.349998,105.900002,105.900002,473792
2019-02-01,106.150002,107.000000,93.599998,95.199997,95.199997,350231
2019-03-01,97.500000,97.500000,92.599998,94.500000,94.500000,209028
2019-04-01,94.050003,96.949997,86.349998,91.849998,91.849998,516692
2019-05-01,91.699997,105.300003,86.750000,104.599998,104.599998,315845
2019-06-01,104.849998,109.000000,94.000000,108.250000,108.250000,460311
2019-07-01,112.550003,113.050003,98.099998,99.650002,99.650002,216412
2019-08-01,97.849998,98.949997,89.599998,93.599998,93.599998,334976
2019-10-01,101.050003,102.900002,92.199997,101.949997,101.949997,553713
2019-11-01,102.150002,118.000000,101.099998,118.550003,118.550003,422648
2020-01-01,129.550003,130.949997,100.150002,102.650002,102.650002,480506
2020-02-01,102.000000,111.500000,97.400002,110.099998,110.099998,339189
2020-04-01,117.750000,122.000000,102.650002,104.650002,104.650002,202888
2020-05-01,104.250000,109.400002,95.849998,96.300003,96.300003,164157
2020-06-01,95.849998,101.449997,92.699997,100.050003,100.050003,290449
2020-07-01,102.800003,119.400002,95.449997,118.949997,118.949997,231822
2020-08-01,118.199997,130.800003,109.699997,129.800003,129.800003,293812
2020-09-01,132.250000,134.500000,108.300003,110.949997,110.949997,200060
2020-10-01,110.949997,113.349998,102.949997,104.400002,104.400002,388627
2020-12-01,120.199997,129.000000,114.750000,128.250000,128.250000,123124
2021-01-01,128.399994,131.750000,118.750000,122.949997,122.949997,386215
2021-02-01,122.650002,139.300003,120.199997,136.850006,136.850006,266926
2021-03-01,138.449997,138.449997,120.500000,123.500000,123.500000,178980
2021-04-01,124.949997,145.800003,120.550003,139.949997,139.949997,279616
2021-05-01,139.899994,163.149994,138.850006,162.350006,162.350006,163521
2021-06-01,162.000000,166.750000,147.050003,159.350006,159.350006,342373
2021-07-01,162.100006,215.199997,149.300003,179.550003,179.550003,320291
2021-09-01,195.300003,199.449997,182.350006,194.000000,194.000000,135357
2021-10-01,194.000000,215.149994,191.300003,203.949997,203.949997,405151
2021-11-01,203.199997,247.550003,198.699997,233.250000,233.250000,343354
